 [
  {
  "callDescription":"None",
  "name":"None"
  },
  {
  "callDescription":"Call for rent",
  "name":"Call"
  },
  {
  "callDescription":"Call for buying flat",
  "name":"To Call"
  },
  {
  "callDescription":"Called for rent",
  "name":"Called"
  },
  {
  "callDescription":"Call again to confirm!",
  "name":"Call Back"
  },
  
  ]